<svg xmlns="http://www.w3.org/2000/svg" width="3.957" height="6.674" viewBox="0 0 3.957 6.674">
  <g id="angle-left" transform="translate(12.831 13.428) rotate(180)">
    <path id="Caminho_553" data-name="Caminho 553" d="M10.4,10.077l2.242-2.242a.634.634,0,1,0-.9-.893L9.062,9.628a.633.633,0,0,0,0,.9l2.686,2.718a.634.634,0,0,0,.9-.893Z"/>
  </g>
</svg>
