<svg id="cancel" xmlns="http://www.w3.org/2000/svg" width="20.802" height="20.801" viewBox="0 0 20.802 20.801">
  <g id="Grupo_5211" data-name="Grupo 5211">
    <path id="Caminho_9879" data-name="Caminho 9879" d="M12.692,10.416,20.47,2.638a1.14,1.14,0,0,0,0-1.609L19.788.348a1.141,1.141,0,0,0-1.609,0L10.4,8.126,2.623.348a1.14,1.14,0,0,0-1.609,0L.333,1.03a1.139,1.139,0,0,0,0,1.609l7.778,7.778L.333,18.194a1.141,1.141,0,0,0,0,1.609l.682.681a1.14,1.14,0,0,0,1.609,0L10.4,12.707l7.778,7.778a1.129,1.129,0,0,0,.8.332h0a1.129,1.129,0,0,0,.8-.332l.682-.681a1.141,1.141,0,0,0,0-1.609Z" transform="translate(0 -0.016)" fill="#fff"/>
  </g>
</svg>
