<svg xmlns="http://www.w3.org/2000/svg" width="45" height="51" viewBox="0 0 45 51">
  <g id="Grupo_5287" data-name="Grupo 5287" transform="translate(-743 -474)">
    <g id="single-01" transform="translate(740 473)">
      <path id="Caminho_9861" data-name="Caminho 9861" d="M24,24h0A10,10,0,0,1,14,14V12A10,10,0,0,1,24,2h0A10,10,0,0,1,34,12v2A10,10,0,0,1,24,24Z" fill="none" stroke="rgba(45,46,47,0.53)" stroke-linecap="round" stroke-linejoin="round" stroke-miterlimit="10" stroke-width="2"/>
      <path id="Caminho_9862" data-name="Caminho 9862" d="M44,38.856a7,7,0,0,0-5.007-6.712,53.5,53.5,0,0,0-29.986,0A7,7,0,0,0,4,38.856V46H44Z" fill="none" stroke="rgba(45,46,47,0.53)" stroke-linecap="round" stroke-linejoin="round" stroke-miterlimit="10" stroke-width="2"/>
    </g>
    <g id="Grupo_5147" data-name="Grupo 5147" transform="translate(7.432 4.432)">
      <circle id="Elipse_557" data-name="Elipse 557" cx="7.5" cy="7.5" r="7.5" transform="translate(765.568 505.568)" fill="#f8f8f8"/>
      <g id="Grupo_5148" data-name="Grupo 5148" transform="translate(769.914 509.504)">
        <g id="Grupo_5145" data-name="Grupo 5145" transform="translate(0 0)">
          <line id="Linha_94" data-name="Linha 94" y1="7.217" transform="translate(3.06 0.222)" fill="none" stroke="#24c185" stroke-linecap="round" stroke-linejoin="round" stroke-miterlimit="10" stroke-width="2"/>
          <path id="Caminho_9863" data-name="Caminho 9863" d="M13,25.06,16.06,22l3.06,3.06" transform="translate(-13 -22)" fill="none" stroke="#24c185" stroke-linecap="round" stroke-linejoin="round" stroke-miterlimit="10" stroke-width="2"/>
        </g>
      </g>
    </g>
  </g>
</svg>
