<svg id="_010-linkedin" data-name="010-linkedin" xmlns="http://www.w3.org/2000/svg" width="28.654" height="28.654" viewBox="0 0 28.654 28.654">
  <path id="Caminho_551" data-name="Caminho 551" d="M25.3,28.654H3.358A3.362,3.362,0,0,1,0,25.3V3.358A3.362,3.362,0,0,1,3.358,0H25.3a3.362,3.362,0,0,1,3.358,3.358V25.3A3.362,3.362,0,0,1,25.3,28.654ZM3.358,2.239A1.121,1.121,0,0,0,2.239,3.358V25.3a1.121,1.121,0,0,0,1.119,1.119H25.3A1.121,1.121,0,0,0,26.415,25.3V3.358A1.121,1.121,0,0,0,25.3,2.239ZM23.151,23.132v-6.6a5.522,5.522,0,0,0-11.044,0v6.6a1.119,1.119,0,1,0,2.239,0v-6.6a3.283,3.283,0,0,1,6.567,0v6.6a1.119,1.119,0,0,0,2.239,0Zm-15.409,0V12.126a1.119,1.119,0,0,0-2.239,0V23.132a1.119,1.119,0,1,0,2.239,0ZM6.622,6.6A1.119,1.119,0,1,0,7.741,7.723,1.119,1.119,0,0,0,6.622,6.6Zm0,0"/>
</svg>
