<svg id="undraw_no_data_qbuo" xmlns="http://www.w3.org/2000/svg" xmlns:xlink="http://www.w3.org/1999/xlink" width="93.222" height="103.412" viewBox="0 0 93.222 103.412">
  <defs>
    <linearGradient id="linear-gradient" x1="0.813" y1="0.841" x2="0.813" y2="-0.159" gradientUnits="objectBoundingBox">
      <stop offset="0" stop-color="gray" stop-opacity="0.251"/>
      <stop offset="0.54" stop-color="gray" stop-opacity="0.122"/>
      <stop offset="1" stop-color="gray" stop-opacity="0.102"/>
    </linearGradient>
    <linearGradient id="linear-gradient-2" x1="1.78" y1="0.849" x2="1.78" y2="-0.151" xlink:href="#linear-gradient"/>
    <linearGradient id="linear-gradient-3" x1="0.5" y1="1" x2="0.5" y2="0" xlink:href="#linear-gradient"/>
    <linearGradient id="linear-gradient-4" x1="0.5" y1="0.999" x2="0.5" y2="-0.001" xlink:href="#linear-gradient"/>
  </defs>
  <rect id="Retângulo_2319" data-name="Retângulo 2319" width="65.102" height="89.95" rx="3" transform="matrix(0.978, -0.21, 0.21, 0.978, 0, 15.464)" fill="rgba(45,46,47,0.8)"/>
  <rect id="Retângulo_2321" data-name="Retângulo 2321" width="60.871" height="85.559" rx="3" transform="matrix(0.978, -0.21, 0.21, 0.978, 2.567, 17.343)" fill="#f7f7f7"/>
  <rect id="Retângulo_2322" data-name="Retângulo 2322" width="30.41" height="7.366" transform="matrix(0.978, -0.21, 0.21, 0.978, 16.719, 10.318)" fill="url(#linear-gradient)"/>
  <path id="Caminho_559" data-name="Caminho 559" d="M441.83,91.366A4.353,4.353,0,1,0,446.9,94.73,4.3,4.3,0,0,0,441.83,91.366Zm1.44,6.718a2.512,2.512,0,1,1,1.871-2.979,2.482,2.482,0,0,1-1.871,2.979Z" transform="translate(-411.755 -91.273)" fill="url(#linear-gradient-2)"/>
  <rect id="Retângulo_2323" data-name="Retângulo 2323" width="29.77" height="7.042" transform="matrix(0.978, -0.21, 0.21, 0.978, 16.966, 9.942)" fill="#24c185"/>
  <path id="Caminho_560" data-name="Caminho 560" d="M442.144,91.366a4.161,4.161,0,1,0,4.941,3.2A4.161,4.161,0,0,0,442.144,91.366Zm1.376,6.421a2.4,2.4,0,1,1,1.844-2.851,2.4,2.4,0,0,1-1.844,2.851Z" transform="translate(-412.069 -91.272)" fill="#24c185"/>
  <rect id="Retângulo_2324" data-name="Retângulo 2324" width="65.102" height="89.95" rx="3" transform="translate(28.12 12.696)" fill="rgba(45,46,47,0.8)"/>
  <rect id="Retângulo_2326" data-name="Retângulo 2326" width="60.871" height="85.559" rx="2" transform="translate(30.236 15.073)" fill="#f7f7f7"/>
  <rect id="Retângulo_2327" data-name="Retângulo 2327" width="30.41" height="7.366" transform="translate(45.547 11.172)" fill="url(#linear-gradient-3)"/>
  <path id="Caminho_561" data-name="Caminho 561" d="M642.572,118a4.354,4.354,0,1,0,4.252,4.353A4.3,4.3,0,0,0,642.572,118Zm0,6.864a2.512,2.512,0,1,1,2.452-2.512,2.482,2.482,0,0,1-2.452,2.5Z" transform="translate(-581.82 -114.018)" fill="url(#linear-gradient-4)"/>
  <rect id="Retângulo_2328" data-name="Retângulo 2328" width="29.77" height="7.042" transform="translate(45.867 10.856)" fill="#24c185"/>
  <path id="Caminho_562" data-name="Caminho 562" d="M643.091,118a4.161,4.161,0,1,0,4.161,4.161A4.161,4.161,0,0,0,643.091,118Zm0,6.562a2.4,2.4,0,1,0,0-.007Z" transform="translate(-582.339 -114.018)" fill="#24c185"/>
</svg>
