<svg xmlns="http://www.w3.org/2000/svg" width="28.453" height="28.453" viewBox="0 0 28.453 28.453">
  <g id="_013-twitter" data-name="013-twitter" transform="translate(0 0)">
    <path id="Caminho_550" data-name="Caminho 550" d="M27.885,11.047l-2.12-1.189,2.094-1.168a1.111,1.111,0,1,0-1.083-1.941L24.612,7.955V7.934A5.748,5.748,0,0,0,13.12,7.707L5.739.326a1.112,1.112,0,0,0-1.572,0A11.028,11.028,0,0,0,5.792,17.248L.326,22.715a1.111,1.111,0,0,0,0,1.572,14.226,14.226,0,0,0,24.28-9.67,1.086,1.086,0,0,0,.006-.113V11.76L26.8,12.985a1.111,1.111,0,1,0,1.087-1.939Zm-5.5,3.433A12,12,0,0,1,2.719,23.465l5.126-5.126a11.054,11.054,0,0,0,6.692.491,1.111,1.111,0,0,0-.518-2.162l-.047.011a8.761,8.761,0,0,1-5.841-.638,1.131,1.131,0,0,0-.113-.055A8.8,8.8,0,0,1,5,2.732l10.089,10.09a1.111,1.111,0,0,0,1.572-1.572L15.338,9.925V7.934a3.525,3.525,0,1,1,7.051,0v6.484c0,.021,0,.041,0,.062Zm0,0" transform="translate(0 0)"/>
  </g>
</svg>
